0 -1.0 -1.0 100.0 -1.0 -1.0 -20.0 -1.0 -1.0 -1.0 -1.0 -1.0 -1.0 -1.0 -1.0 -1.0 
1 -1.1 -1.1 100.0 -1.1 -1.1 -20.1 6.79 -1.1 -1.1 -1.1 -1.1 -1.1 -1.1 -1.1 -1.1 
2 -1.11 -1.11 100.0 -1.11 -1.11 -19.6688 6.8669 -1.11 -1.11 -1.11 -0.4788 -1.11 -1.11 -1.11 -1.11 
3 -1.111 -1.111 100.0 -1.111 -1.111 -19.658436 6.871981 -1.111 -1.111 -1.104688 -0.466536 -1.111 -1.111 -1.111 -1.060504 
4 -1.1111 -1.1111 100.0 -1.1111 -1.1111 -19.65787276 6.87213545 -1.1111 -1.11059504 -1.10465536 -0.46595376 -1.1111 -1.1111 -1.1069972 -1.05903792 
5 -1.11111 -1.11111 100.0 -1.11111 -1.1111049504 -19.6578544452 6.8721426269 -1.1110696032 -1.1105944288 -1.104325264 -0.4659352552 -1.11111 -1.1107767264 -1.1068395592 -1.058936652 
6 -1.111111 -1.11111059603 100.0 -1.11110771776 -1.11110584429 -19.6578503869 6.87214288182 -1.1110697543 -1.11056483789 -1.10431246158 -0.46593119504 -1.11108393414 -1.11076087629 -1.10682658039 -1.05893258253 
